{
  "href": "https://api.spotify.com/v1/users/1122334455/playlists?offset=0&limit=20",
  "items": [
    {
      "collaborative": true,
      "description": "",
      "external_urls": {
        "spotify": "https://open.spotify.com/playlist/44sAzio7OlYDI9U5nDdkw3"
      },
      "href": "https://api.spotify.com/v1/playlists/44sAzio7OlYDI9U5nDdkw3",
      "id": "44sAzio7OlYDI9U5nDdkw3",
      "images": [
        {
          "height": 640,
          "url": "https://mosaic.scdn.co/640/ab67616d0000b2733cafa7fc764da734153038e2ab67616d0000b2735b3708bfcca9bbac81605debab67616d0000b27369402e93984fc40211200761ab67616d0000b273d5fd09a5ed4bae6405ce6107",
          "width": 640
        },
        {
          "height": 300,
          "url": "https://mosaic.scdn.co/300/ab67616d0000b2733cafa7fc764da734153038e2ab67616d0000b2735b3708bfcca9bbac81605debab67616d0000b27369402e93984fc40211200761ab67616d0000b273d5fd09a5ed4bae6405ce6107",
          "width": 300
        },
        {
          "height": 60,
          "url": "https://mosaic.scdn.co/60/ab67616d0000b2733cafa7fc764da734153038e2ab67616d0000b2735b3708bfcca9bbac81605debab67616d0000b27369402e93984fc40211200761ab67616d0000b273d5fd09a5ed4bae6405ce6107",
          "width": 60
        }
      ],
      "name": "The Blast Beets by Doug Funny",
      "owner": {
        "display_name": "Johnny Truant",
        "external_urls": {
          "spotify": "https://open.spotify.com/user/1122334455"
        },
        "href": "https://api.spotify.com/v1/users/1122334455",
        "id": "1122334455",
        "type": "user",
        "uri": "spotify:user:1122334455"
      },
      "primary_color": null,
      "public": true,
      "snapshot_id": "MTIsZjk5ZTNmZmNhNmY2N2IxN2FlMjZmZWUxZTA2ZDVhN2QzZmIzNDEyMQ==",
      "tracks": {
        "href": "https://api.spotify.com/v1/playlists/44sAzio7OlYDI9U5nDdkw3/tracks",
        "total": 8
      },
      "type": "playlist",
      "uri": "spotify:playlist:44sAzio7OlYDI9U5nDdkw3"
    },
    {
      "collaborative": false,
      "description": "A moshpit of ONLY grindcore albums. If you want to add your grinding songs here, text me on Instagram and I&#x27;ll be glad to listen and add them.",
      "external_urls": {
        "spotify": "https://open.spotify.com/playlist/0QWDu8Dk7DbloN8TLFWKgA"
      },
      "href": "https://api.spotify.com/v1/playlists/0QWDu8Dk7DbloN8TLFWKgA",
      "id": "0QWDu8Dk7DbloN8TLFWKgA",
      "images": [
        {
          "height": null,
          "url": "https://i.scdn.co/image/ab67706c0000bebbe3c12320d627acb62c7402e4",
          "width": null
        }
      ],
      "name": "GRINDCORE",
      "owner": {
        "display_name": "TeoDaCasteo",
        "external_urls": {
          "spotify": "https://open.spotify.com/user/1183365381"
        },
        "href": "https://api.spotify.com/v1/users/1183365381",
        "id": "1183365381",
        "type": "user",
        "uri": "spotify:user:1183365381"
      },
      "primary_color": null,
      "public": false,
      "snapshot_id": "MzM3LDEwZDg2ODNhMzgxNDg2NzMyMWJmMGJjZGFlMzg2MTI5NTFhNzk2YmM=",
      "tracks": {
        "href": "https://api.spotify.com/v1/playlists/0QWDu8Dk7DbloN8TLFWKgA/tracks",
        "total": 1872
      },
      "type": "playlist",
      "uri": "spotify:playlist:0QWDu8Dk7DbloN8TLFWKgA"
    },
    {
      "collaborative": false,
      "description": "Explore the most innovative and forward thinking metal of today. Cover: Sullivan King",
      "external_urls": {
        "spotify": "https://open.spotify.com/playlist/37i9dQZF1DWY5ai7gxfuaS"
      },
      "href": "https://api.spotify.com/v1/playlists/37i9dQZF1DWY5ai7gxfuaS",
      "id": "37i9dQZF1DWY5ai7gxfuaS",
      "images": [
        {
          "height": null,
          "url": "https://i.scdn.co/image/ab67706f00000003ec2d4e56757e4675168cc29a",
          "width": null
        }
      ],
      "name": "The oTHERS",
      "owner": {
        "display_name": "Spotify",
        "external_urls": {
          "spotify": "https://open.spotify.com/user/spotify"
        },
        "href": "https://api.spotify.com/v1/users/spotify",
        "id": "spotify",
        "type": "user",
        "uri": "spotify:user:spotify"
      },
      "primary_color": null,
      "public": false,
      "snapshot_id": "MTYxODUyNzYwMCwwMDAwMDFhYTAwMDAwMTc4ZDdjMzNlMWYwMDAwMDE3OGQ1ZmE4MDcy",
      "tracks": {
        "href": "https://api.spotify.com/v1/playlists/37i9dQZF1DWY5ai7gxfuaS/tracks",
        "total": 80
      },
      "type": "playlist",
      "uri": "spotify:playlist:37i9dQZF1DWY5ai7gxfuaS"
    },
    {
      "collaborative": false,
      "description": "Fire up that straightener and dust off your skinny jeans - whether it&#x27;s &#x27;true revival&#x27; or very reminiscent, enjoy songs by modern bands most heavily influenced by a distinct sound that spans from end of the 90&#x27;s to late 00&#x27;s era &#x27;Core as well as modern remasters, covers or reimaginings of classics.",
      "external_urls": {
        "spotify": "https://open.spotify.com/playlist/4WWE0IqJqO6QwrJPvtTZpw"
      },
      "href": "https://api.spotify.com/v1/playlists/4WWE0IqJqO6QwrJPvtTZpw",
      "id": "4WWE0IqJqO6QwrJPvtTZpw",
      "images": [
        {
          "height": null,
          "url": "https://i.scdn.co/image/ab67706c0000bebbb8a8b0e75bd77fc10da36f99",
          "width": null
        }
      ],
      "name": "r/revivalcore",
      "owner": {
        "display_name": "StarshipProto",
        "external_urls": {
          "spotify": "https://open.spotify.com/user/renegadesforever"
        },
        "href": "https://api.spotify.com/v1/users/renegadesforever",
        "id": "renegadesforever",
        "type": "user",
        "uri": "spotify:user:renegadesforever"
      },
      "primary_color": null,
      "public": false,
      "snapshot_id": "MzQzLGI3NzA0ZWQ4MjE5MTUyZGUwYTMyNTZlMTU3NTUzMzhkMTVkMGU0ZjI=",
      "tracks": {
        "href": "https://api.spotify.com/v1/playlists/4WWE0IqJqO6QwrJPvtTZpw/tracks",
        "total": 280
      },
      "type": "playlist",
      "uri": "spotify:playlist:4WWE0IqJqO6QwrJPvtTZpw"
    },
    {
      "collaborative": false,
      "description": "Welcome to the universe of complex rhythms and mesmerizing loops. Cover: toe",
      "external_urls": {
        "spotify": "https://open.spotify.com/playlist/37i9dQZF1DWSsObZRzO8Xw"
      },
      "href": "https://api.spotify.com/v1/playlists/37i9dQZF1DWSsObZRzO8Xw",
      "id": "37i9dQZF1DWSsObZRzO8Xw",
      "images": [
        {
          "height": null,
          "url": "https://i.scdn.co/image/ab67706f00000003b6e39a1864d76fa55bf38ca1",
          "width": null
        }
      ],
      "name": "Math Rock",
      "owner": {
        "display_name": "Spotify",
        "external_urls": {
          "spotify": "https://open.spotify.com/user/spotify"
        },
        "href": "https://api.spotify.com/v1/users/spotify",
        "id": "spotify",
        "type": "user",
        "uri": "spotify:user:spotify"
      },
      "primary_color": null,
      "public": false,
      "snapshot_id": "MTYzNDMyOTMxMCwwMDAwMDAwODAwMDAwMTdjODU5ZTM0YmMwMDAwMDE3Yzg1M2YwMTVm",
      "tracks": {
        "href": "https://api.spotify.com/v1/playlists/37i9dQZF1DWSsObZRzO8Xw/tracks",
        "total": 95
      },
      "type": "playlist",
      "uri": "spotify:playlist:37i9dQZF1DWSsObZRzO8Xw"
    },
    {
      "collaborative": false,
      "description": "A progressive fusion of jazz, rock and avant-garde.",
      "external_urls": {
        "spotify": "https://open.spotify.com/playlist/37i9dQZF1DX9NNVWdU83m6"
      },
      "href": "https://api.spotify.com/v1/playlists/37i9dQZF1DX9NNVWdU83m6",
      "id": "37i9dQZF1DX9NNVWdU83m6",
      "images": [
        {
          "height": null,
          "url": "https://i.scdn.co/image/ab67706f0000000333a3b2b77fca2e96c4d784fd",
          "width": null
        }
      ],
      "name": "Prog Jazz",
      "owner": {
        "display_name": "Spotify",
        "external_urls": {
          "spotify": "https://open.spotify.com/user/spotify"
        },
        "href": "https://api.spotify.com/v1/users/spotify",
        "id": "spotify",
        "type": "user",
        "uri": "spotify:user:spotify"
      },
      "primary_color": null,
      "public": false,
      "snapshot_id": "MTYzNzcyMTUxMCwwMDAwMDAwMGQ0MWQ4Y2Q5OGYwMGIyMDRlOTgwMDk5OGVjZjg0Mjdl",
      "tracks": {
        "href": "https://api.spotify.com/v1/playlists/37i9dQZF1DX9NNVWdU83m6/tracks",
        "total": 50
      },
      "type": "playlist",
      "uri": "spotify:playlist:37i9dQZF1DX9NNVWdU83m6"
    },
    {
      "collaborative": false,
      "description": "The original chill instrumental beats playlist.",
      "external_urls": {
        "spotify": "https://open.spotify.com/playlist/37i9dQZF1DX0SM0LYsmbMT"
      },
      "href": "https://api.spotify.com/v1/playlists/37i9dQZF1DX0SM0LYsmbMT",
      "id": "37i9dQZF1DX0SM0LYsmbMT",
      "images": [
        {
          "height": null,
          "url": "https://i.scdn.co/image/ab67706f000000033462a4dbc851cd106d16491c",
          "width": null
        }
      ],
      "name": "Jazz Vibes",
      "owner": {
        "display_name": "Spotify",
        "external_urls": {
          "spotify": "https://open.spotify.com/user/spotify"
        },
        "href": "https://api.spotify.com/v1/users/spotify",
        "id": "spotify",
        "type": "user",
        "uri": "spotify:user:spotify"
      },
      "primary_color": null,
      "public": false,
      "snapshot_id": "MTYzNzcyMTUxMCwwMDAwMDAwMGQ0MWQ4Y2Q5OGYwMGIyMDRlOTgwMDk5OGVjZjg0Mjdl",
      "tracks": {
        "href": "https://api.spotify.com/v1/playlists/37i9dQZF1DX0SM0LYsmbMT/tracks",
        "total": 300
      },
      "type": "playlist",
      "uri": "spotify:playlist:37i9dQZF1DX0SM0LYsmbMT"
    },
    {
      "collaborative": false,
      "description": "Instrumental only. For the maniacs out there. Cover: pg.lost",
      "external_urls": {
        "spotify": "https://open.spotify.com/playlist/37i9dQZF1DWUk47CLxI4Uo"
      },
      "href": "https://api.spotify.com/v1/playlists/37i9dQZF1DWUk47CLxI4Uo",
      "id": "37i9dQZF1DWUk47CLxI4Uo",
      "images": [
        {
          "height": null,
          "url": "https://i.scdn.co/image/ab67706f00000003ef00cb9bd5134a47de36f12a",
          "width": null
        }
      ],
      "name": "Instrumental Madness",
      "owner": {
        "display_name": "Spotify",
        "external_urls": {
          "spotify": "https://open.spotify.com/user/spotify"
        },
        "href": "https://api.spotify.com/v1/users/spotify",
        "id": "spotify",
        "type": "user",
        "uri": "spotify:user:spotify"
      },
      "primary_color": null,
      "public": false,
      "snapshot_id": "MTYzNzcyMTUxMCwwMDAwMDAwMGQ0MWQ4Y2Q5OGYwMGIyMDRlOTgwMDk5OGVjZjg0Mjdl",
      "tracks": {
        "href": "https://api.spotify.com/v1/playlists/37i9dQZF1DWUk47CLxI4Uo/tracks",
        "total": 130
      },
      "type": "playlist",
      "uri": "spotify:playlist:37i9dQZF1DWUk47CLxI4Uo"
    },
    {
      "collaborative": false,
      "description": "Artanis",
      "external_urls": {
        "spotify": "https://open.spotify.com/playlist/7JX5x2ralZ4YSrOA20qwnW"
      },
      "href": "https://api.spotify.com/v1/playlists/7JX5x2ralZ4YSrOA20qwnW",
      "id": "7JX5x2ralZ4YSrOA20qwnW",
      "images": [
        {
          "height": null,
          "url": "https://i.scdn.co/image/ab67706c0000bebb571ca87a350da18192d9be5b",
          "width": null
        }
      ],
      "name": "Daniel Lin Fang",
      "owner": {
        "display_name": "Turnstile",
        "external_urls": {
          "spotify": "https://open.spotify.com/user/turnstile2016"
        },
        "href": "https://api.spotify.com/v1/users/turnstile2016",
        "id": "turnstile2016",
        "type": "user",
        "uri": "spotify:user:turnstile2016"
      },
      "primary_color": null,
      "public": false,
      "snapshot_id": "MjI0LDA4YmNmMWY1M2FkNGI2MWEwZjBlOWIyNzkxMWVjNjVhMDM3NmM4NGE=",
      "tracks": {
        "href": "https://api.spotify.com/v1/playlists/7JX5x2ralZ4YSrOA20qwnW/tracks",
        "total": 48
      },
      "type": "playlist",
      "uri": "spotify:playlist:7JX5x2ralZ4YSrOA20qwnW"
    },
    {
      "collaborative": false,
      "description": "The best playlist for southern gothic, dark folk, and murderfolk featuring Amigo The Devil, Devil Makes Three, Murder By Death, Shawn James, Days N Daze, Harley Poe, Bridge CIty Sinners, 16 Horsepower",
      "external_urls": {
        "spotify": "https://open.spotify.com/playlist/3CmpFf7Kul94Skz2GfvkFT"
      },
      "href": "https://api.spotify.com/v1/playlists/3CmpFf7Kul94Skz2GfvkFT",
      "id": "3CmpFf7Kul94Skz2GfvkFT",
      "images": [
        {
          "height": null,
          "url": "https://i.scdn.co/image/ab67706c0000bebbf244325c0f957c46b2276778",
          "width": null
        }
      ],
      "name": "Murderfolk Playlist - Essential Dark Folk and Southern Gothic",
      "owner": {
        "display_name": "Underground Alliance",
        "external_urls": {
          "spotify": "https://open.spotify.com/user/hanbjzh6ktro1kmkwlblsvosu"
        },
        "href": "https://api.spotify.com/v1/users/hanbjzh6ktro1kmkwlblsvosu",
        "id": "hanbjzh6ktro1kmkwlblsvosu",
        "type": "user",
        "uri": "spotify:user:hanbjzh6ktro1kmkwlblsvosu"
      },
      "primary_color": null,
      "public": false,
      "snapshot_id": "OTQ2LDE1YmQ3MzYxMjIxYzgyMzliODgzZWY3NTQ0N2JlYzI1NjUxMTNiOGY=",
      "tracks": {
        "href": "https://api.spotify.com/v1/playlists/3CmpFf7Kul94Skz2GfvkFT/tracks",
        "total": 229
      },
      "type": "playlist",
      "uri": "spotify:playlist:3CmpFf7Kul94Skz2GfvkFT"
    },
    {
      "collaborative": false,
      "description": "A daily selection of chill beats - perfect to help you relax &amp; study 📚",
      "external_urls": {
        "spotify": "https://open.spotify.com/playlist/0vvXsWCC9xrXsKd4FyS8kM"
      },
      "href": "https://api.spotify.com/v1/playlists/0vvXsWCC9xrXsKd4FyS8kM",
      "id": "0vvXsWCC9xrXsKd4FyS8kM",
      "images": [
        {
          "height": null,
          "url": "https://i.scdn.co/image/ab67706c0000bebb163aeea48afe86ed0c55bfcd",
          "width": null
        }
      ],
      "name": "lofi hip hop music - beats to relax/study to",
      "owner": {
        "display_name": "Lofi Girl",
        "external_urls": {
          "spotify": "https://open.spotify.com/user/chilledcow"
        },
        "href": "https://api.spotify.com/v1/users/chilledcow",
        "id": "chilledcow",
        "type": "user",
        "uri": "spotify:user:chilledcow"
      },
      "primary_color": null,
      "public": false,
      "snapshot_id": "MjM3MCwwMzIwYjFkYTRlZjRjZWEwZjJjZGY1MmYxZjQ0ZWJhYWU0Y2Y2MGFl",
      "tracks": {
        "href": "https://api.spotify.com/v1/playlists/0vvXsWCC9xrXsKd4FyS8kM/tracks",
        "total": 300
      },
      "type": "playlist",
      "uri": "spotify:playlist:0vvXsWCC9xrXsKd4FyS8kM"
    },
    {
      "collaborative": false,
      "description": "",
      "external_urls": {
        "spotify": "https://open.spotify.com/playlist/5E2yTO8XMldKzKNgmVNl26"
      },
      "href": "https://api.spotify.com/v1/playlists/5E2yTO8XMldKzKNgmVNl26",
      "id": "5E2yTO8XMldKzKNgmVNl26",
      "images": [
        {
          "height": 640,
          "url": "https://i.scdn.co/image/ab67616d0000b27389009a84211d133a94d7c2ab",
          "width": 640
        }
      ],
      "name": "Pit Call - BLEGH",
      "owner": {
        "display_name": "Johnny Truant",
        "external_urls": {
          "spotify": "https://open.spotify.com/user/1122334455"
        },
        "href": "https://api.spotify.com/v1/users/1122334455",
        "id": "1122334455",
        "type": "user",
        "uri": "spotify:user:1122334455"
      },
      "primary_color": null,
      "public": true,
      "snapshot_id": "NCw5OTEyYTRiMzBiOWUxZmY1NWZiYTVkZTAzYTFlNzkyM2JjMTU1NmNj",
      "tracks": {
        "href": "https://api.spotify.com/v1/playlists/5E2yTO8XMldKzKNgmVNl26/tracks",
        "total": 3
      },
      "type": "playlist",
      "uri": "spotify:playlist:5E2yTO8XMldKzKNgmVNl26"
    },
    {
      "collaborative": false,
      "description": "This week&#x27;s featured artist is Aephanemer! Their third and thunderous album &quot;A Dream of Wilderness&quot; has arrived - a blend of brutal symphonic death and raw melodic metal in one multi-faceted epic! Instrumental Metal &amp; Rock of all genres, no vocals. Playlist updated regularly.",
      "external_urls": {
        "spotify": "https://open.spotify.com/playlist/2H9ftE0fbccEVlydyQZxfl"
      },
      "href": "https://api.spotify.com/v1/playlists/2H9ftE0fbccEVlydyQZxfl",
      "id": "2H9ftE0fbccEVlydyQZxfl",
      "images": [
        {
          "height": null,
          "url": "https://i.scdn.co/image/ab67706c0000bebbc480be528d24b8631132bf1d",
          "width": null
        }
      ],
      "name": "InstruMetal   ⚡  Instrumental Metal & Rock",
      "owner": {
        "display_name": "shawnvanboven",
        "external_urls": {
          "spotify": "https://open.spotify.com/user/shawnvanboven"
        },
        "href": "https://api.spotify.com/v1/users/shawnvanboven",
        "id": "shawnvanboven",
        "type": "user",
        "uri": "spotify:user:shawnvanboven"
      },
      "primary_color": null,
      "public": false,
      "snapshot_id": "MjM1Miw3ZGUwY2Q0MDNjYjg5NWI3MTU4NTc0MWQ1OWE4N2ZjNDAzODM5YTBk",
      "tracks": {
        "href": "https://api.spotify.com/v1/playlists/2H9ftE0fbccEVlydyQZxfl/tracks",
        "total": 1386
      },
      "type": "playlist",
      "uri": "spotify:playlist:2H9ftE0fbccEVlydyQZxfl"
    },
    {
      "collaborative": false,
      "description": "",
      "external_urls": {
        "spotify": "https://open.spotify.com/playlist/5ErOVdIoNSADEXc6FzUc7d"
      },
      "href": "https://api.spotify.com/v1/playlists/5ErOVdIoNSADEXc6FzUc7d",
      "id": "5ErOVdIoNSADEXc6FzUc7d",
      "images": [
        {
          "height": 640,
          "url": "https://mosaic.scdn.co/640/ab67616d0000b273169e46867bdfede3803964b2ab67616d0000b2732a2d11880ce5489ccc1d1a37ab67616d0000b273930030b68ff8df2354548098ab67616d0000b273f53dc3d963afa475a1f32812",
          "width": 640
        },
        {
          "height": 300,
          "url": "https://mosaic.scdn.co/300/ab67616d0000b273169e46867bdfede3803964b2ab67616d0000b2732a2d11880ce5489ccc1d1a37ab67616d0000b273930030b68ff8df2354548098ab67616d0000b273f53dc3d963afa475a1f32812",
          "width": 300
        },
        {
          "height": 60,
          "url": "https://mosaic.scdn.co/60/ab67616d0000b273169e46867bdfede3803964b2ab67616d0000b2732a2d11880ce5489ccc1d1a37ab67616d0000b273930030b68ff8df2354548098ab67616d0000b273f53dc3d963afa475a1f32812",
          "width": 60
        }
      ],
      "name": "1-Instrumentals",
      "owner": {
        "display_name": "tannerhall47",
        "external_urls": {
          "spotify": "https://open.spotify.com/user/tannerhall47"
        },
        "href": "https://api.spotify.com/v1/users/tannerhall47",
        "id": "tannerhall47",
        "type": "user",
        "uri": "spotify:user:tannerhall47"
      },
      "primary_color": null,
      "public": false,
      "snapshot_id": "MjE0LDQ4MmM3N2E1MWY0MWI0NWRhYTYxNzlhMWU5MTVkYjEzNGFkMjZmMzY=",
      "tracks": {
        "href": "https://api.spotify.com/v1/playlists/5ErOVdIoNSADEXc6FzUc7d/tracks",
        "total": 182
      },
      "type": "playlist",
      "uri": "spotify:playlist:5ErOVdIoNSADEXc6FzUc7d"
    },
    {
      "collaborative": false,
      "description": "100 + tracks keepin Metalcore alive. Cover: We Came As Romans <a href=\"https://www.youtube.com/sharptonerecords\">VIDEOS</a> | <a href=\"http://sharptonestore.com\">MERCH</a>",
      "external_urls": {
        "spotify": "https://open.spotify.com/playlist/5Nx2q3PhzMuhhGQFnlFil3"
      },
      "href": "https://api.spotify.com/v1/playlists/5Nx2q3PhzMuhhGQFnlFil3",
      "id": "5Nx2q3PhzMuhhGQFnlFil3",
      "images": [
        {
          "height": null,
          "url": "https://i.scdn.co/image/ab67706c0000bebb39149070e659ff2b94223851",
          "width": null
        }
      ],
      "name": "Metalcore Is Not Dead",
      "owner": {
        "display_name": "SHARPTONE Records",
        "external_urls": {
          "spotify": "https://open.spotify.com/user/sharptonerecords"
        },
        "href": "https://api.spotify.com/v1/users/sharptonerecords",
        "id": "sharptonerecords",
        "type": "user",
        "uri": "spotify:user:sharptonerecords"
      },
      "primary_color": null,
      "public": false,
      "snapshot_id": "MTg1NCxiMGY1OTY2YWY0OWNhZjRiZTY5MjBjMzc0MzhmYThmZmI4YmYzOGI5",
      "tracks": {
        "href": "https://api.spotify.com/v1/playlists/5Nx2q3PhzMuhhGQFnlFil3/tracks",
        "total": 192
      },
      "type": "playlist",
      "uri": "spotify:playlist:5Nx2q3PhzMuhhGQFnlFil3"
    },
    {
      "collaborative": false,
      "description": "Oatmello, Don Philippe, Jazzy James and more",
      "external_urls": {
        "spotify": "https://open.spotify.com/playlist/37i9dQZF1E36QAfFRMVsuY"
      },
      "href": "https://api.spotify.com/v1/playlists/37i9dQZF1E36QAfFRMVsuY",
      "id": "37i9dQZF1E36QAfFRMVsuY",
      "images": [
        {
          "height": null,
          "url": "https://dailymix-images.scdn.co/v2/img/ab6761610000e5ebe1f060d54ce719757138becd/1/en/large",
          "width": null
        }
      ],
      "name": "Daily Mix 1",
      "owner": {
        "display_name": "Spotify",
        "external_urls": {
          "spotify": "https://open.spotify.com/user/spotify"
        },
        "href": "https://api.spotify.com/v1/users/spotify",
        "id": "spotify",
        "type": "user",
        "uri": "spotify:user:spotify"
      },
      "primary_color": null,
      "public": false,
      "snapshot_id": "MjcyOTQ1NjUsMDAwMDAwMDA4NTAxNDFhMjYyZDU1ZTQ3NzE3M2JmMzZjYjE4MzQyMg==",
      "tracks": {
        "href": "https://api.spotify.com/v1/playlists/37i9dQZF1E36QAfFRMVsuY/tracks",
        "total": 50
      },
      "type": "playlist",
      "uri": "spotify:playlist:37i9dQZF1E36QAfFRMVsuY"
    },
    {
      "collaborative": false,
      "description": "The perfect mix between old-school and modern Metalcore. Cover: A7X",
      "external_urls": {
        "spotify": "https://open.spotify.com/playlist/37i9dQZF1DX6P51sFpSo2r"
      },
      "href": "https://api.spotify.com/v1/playlists/37i9dQZF1DX6P51sFpSo2r",
      "id": "37i9dQZF1DX6P51sFpSo2r",
      "images": [
        {
          "height": null,
          "url": "https://i.scdn.co/image/ab67706f00000003292d442cfa6d44a0a3e0df47",
          "width": null
        }
      ],
      "name": "Metalcore Classics",
      "owner": {
        "display_name": "Spotify",
        "external_urls": {
          "spotify": "https://open.spotify.com/user/spotify"
        },
        "href": "https://api.spotify.com/v1/users/spotify",
        "id": "spotify",
        "type": "user",
        "uri": "spotify:user:spotify"
      },
      "primary_color": null,
      "public": false,
      "snapshot_id": "MTYyOTczOTUwOSwwMDAwMDAwYjAwMDAwMTdiNzQwYjY3MjMwMDAwMDE3Yjc0MGI0NmRm",
      "tracks": {
        "href": "https://api.spotify.com/v1/playlists/37i9dQZF1DX6P51sFpSo2r/tracks",
        "total": 50
      },
      "type": "playlist",
      "uri": "spotify:playlist:37i9dQZF1DX6P51sFpSo2r"
    },
    {
      "collaborative": false,
      "description": "Find your focus with instrumental jazz.",
      "external_urls": {
        "spotify": "https://open.spotify.com/playlist/37i9dQZF1DX3SiCzCxMDOH"
      },
      "href": "https://api.spotify.com/v1/playlists/37i9dQZF1DX3SiCzCxMDOH",
      "id": "37i9dQZF1DX3SiCzCxMDOH",
      "images": [
        {
          "height": null,
          "url": "https://i.scdn.co/image/ab67706f00000003c23cc6248c9ece3b627f8813",
          "width": null
        }
      ],
      "name": "Jazz for Study",
      "owner": {
        "display_name": "Spotify",
        "external_urls": {
          "spotify": "https://open.spotify.com/user/spotify"
        },
        "href": "https://api.spotify.com/v1/users/spotify",
        "id": "spotify",
        "type": "user",
        "uri": "spotify:user:spotify"
      },
      "primary_color": null,
      "public": false,
      "snapshot_id": "MTYzNjU1NTM3MCwwMDAwMDA1MTAwMDAwMTdkMGE0ZDMxM2EwMDAwMDE3MGM0OTg3ZjJk",
      "tracks": {
        "href": "https://api.spotify.com/v1/playlists/37i9dQZF1DX3SiCzCxMDOH/tracks",
        "total": 124
      },
      "type": "playlist",
      "uri": "spotify:playlist:37i9dQZF1DX3SiCzCxMDOH"
    },
    {
      "collaborative": false,
      "description": "Deep, dark, dramatic. Roots rock, folk, and Americana—with a gothic soul.",
      "external_urls": {
        "spotify": "https://open.spotify.com/playlist/37i9dQZF1DX58NJL8iVBGW"
      },
      "href": "https://api.spotify.com/v1/playlists/37i9dQZF1DX58NJL8iVBGW",
      "id": "37i9dQZF1DX58NJL8iVBGW",
      "images": [
        {
          "height": null,
          "url": "https://i.scdn.co/image/ab67706f0000000378a7fef6b1028a81a431efa9",
          "width": null
        }
      ],
      "name": "Southern Gothic",
      "owner": {
        "display_name": "Spotify",
        "external_urls": {
          "spotify": "https://open.spotify.com/user/spotify"
        },
        "href": "https://api.spotify.com/v1/users/spotify",
        "id": "spotify",
        "type": "user",
        "uri": "spotify:user:spotify"
      },
      "primary_color": null,
      "public": true,
      "snapshot_id": "MTYzNzcyMTUxMCwwMDAwMDAwMGQ0MWQ4Y2Q5OGYwMGIyMDRlOTgwMDk5OGVjZjg0Mjdl",
      "tracks": {
        "href": "https://api.spotify.com/v1/playlists/37i9dQZF1DX58NJL8iVBGW/tracks",
        "total": 100
      },
      "type": "playlist",
      "uri": "spotify:playlist:37i9dQZF1DX58NJL8iVBGW"
    },
    {
      "collaborative": false,
      "description": "New and old melodic hardcore&#x2F;metalcore. --- Requests welcome: facebook.com&#x2F;NathanGrist or mhplaylist@icloud.com",
      "external_urls": {
        "spotify": "https://open.spotify.com/playlist/0JRZxlo0Dl8RV9AAJsT2Xc"
      },
      "href": "https://api.spotify.com/v1/playlists/0JRZxlo0Dl8RV9AAJsT2Xc",
      "id": "0JRZxlo0Dl8RV9AAJsT2Xc",
      "images": [
        {
          "height": null,
          "url": "https://i.scdn.co/image/ab67706c0000bebb6e788d7176807356333e6583",
          "width": null
        }
      ],
      "name": "Melodic Hardcore",
      "owner": {
        "display_name": "Nathan Grist",
        "external_urls": {
          "spotify": "https://open.spotify.com/user/nathan-g."
        },
        "href": "https://api.spotify.com/v1/users/nathan-g.",
        "id": "nathan-g.",
        "type": "user",
        "uri": "spotify:user:nathan-g."
      },
      "primary_color": null,
      "public": false,
      "snapshot_id": "OTEwLDY1NzY5NmM5N2EyNDYzNTA1OTM2ZmJlMzg1MDIxNDQzMTZmMDRhODY=",
      "tracks": {
        "href": "https://api.spotify.com/v1/playlists/0JRZxlo0Dl8RV9AAJsT2Xc/tracks",
        "total": 658
      },
      "type": "playlist",
      "uri": "spotify:playlist:0JRZxlo0Dl8RV9AAJsT2Xc"
    }
  ],
  "limit": 20,
  "next": "https://api.spotify.com/v1/users/1122334455/playlists?offset=20&limit=20",
  "offset": 0,
  "previous": null,
  "total": 58
}